<?xml version="1.0" standalone="no"?>
<!DOCTYPE svg PUBLIC "-//W3C//DTD SVG 20010904//EN"
 "http://www.w3.org/TR/2001/REC-SVG-20010904/DTD/svg10.dtd">
<svg version="1.0" xmlns="http://www.w3.org/2000/svg"
 width="228.000000pt" height="228.000000pt" viewBox="0 0 228.000000 228.000000"
 preserveAspectRatio="xMidYMid meet">
<metadata>
Created by potrace 1.11, written by Peter Selinger 2001-2013
</metadata>
<g transform="translate(0.000000,228.000000) scale(0.100000,-0.100000)"
fill="#000000" stroke="none">
<path d="M1628 1693 c-21 -2 -38 -8 -38 -14 0 -5 -11 -9 -24 -9 -14 0 -31 -6
-38 -14 -8 -7 -25 -17 -38 -21 -42 -13 -144 -125 -114 -125 7 0 64 63 64 71 0
3 12 12 28 20 26 13 32 18 67 47 8 7 47 16 85 19 39 3 70 10 70 14 0 5 7 9 15
9 8 0 15 -4 15 -9 0 -5 26 -11 59 -13 37 -3 65 -10 75 -21 10 -9 22 -17 27
-17 11 0 46 -28 68 -54 9 -10 24 -26 34 -35 9 -8 17 -21 17 -28 0 -7 5 -13 10
-13 6 0 10 -7 10 -15 0 -8 -4 -15 -10 -15 -5 0 -10 4 -10 8 0 5 -18 15 -40 22
-22 7 -40 17 -40 22 0 4 -11 8 -24 8 -14 0 -32 7 -40 16 -9 8 -32 18 -51 21
-19 3 -35 10 -35 14 0 5 -34 9 -75 9 -41 0 -75 -4 -75 -9 0 -5 -18 -11 -40
-15 -22 -3 -40 -10 -40 -15 0 -6 -10 -13 -22 -17 -12 -3 -27 -12 -33 -18 -7
-6 -24 -20 -39 -31 -16 -11 -33 -25 -40 -31 -6 -5 -19 -13 -28 -17 -10 -3 -18
-11 -18 -17 0 -6 -7 -18 -15 -26 -13 -14 -15 -13 -15 3 0 43 13 64 41 70 50
10 33 40 -18 34 -10 -1 -13 20 -13 79 0 73 -2 80 -20 80 -19 0 -20 -7 -20 -95
0 -78 3 -95 15 -95 16 0 18 -12 9 -45 -4 -16 -14 -20 -48 -21 -39 -1 -58 -11
-102 -52 -12 -11 -14 -11 -14 2 0 9 -4 16 -10 16 -5 0 -10 6 -10 14 0 16 -32
26 -60 19 -11 -3 -20 -12 -20 -19 0 -8 -4 -14 -10 -14 -6 0 -10 -83 -10 -230
0 -126 4 -230 9 -230 5 0 11 -9 14 -20 7 -28 67 -28 74 0 3 11 9 20 14 20 4 0
9 77 11 171 3 148 5 172 20 180 9 5 24 16 32 24 16 17 56 20 56 5 0 -5 -8 -13
-17 -19 -16 -8 -18 -26 -18 -131 0 -105 2 -123 18 -131 9 -6 17 -15 17 -21 0
-6 10 -20 23 -32 13 -12 30 -36 38 -54 7 -18 17 -32 21 -32 3 0 9 -14 13 -30
6 -28 14 -34 42 -31 7 1 17 -9 23 -21 10 -21 10 -21 -3 -5 -17 20 -27 22 -27
4 0 -7 10 -19 21 -27 12 -8 33 -25 47 -37 14 -13 31 -23 37 -23 7 0 15 -7 19
-15 3 -9 12 -12 23 -9 15 5 15 4 3 -5 -13 -9 -12 -12 5 -25 11 -9 26 -16 33
-16 6 0 12 -4 12 -9 0 -6 20 -13 45 -17 25 -3 45 -10 45 -15 0 -5 32 -9 70 -9
39 0 70 4 70 9 0 4 19 11 42 14 24 3 44 11 46 16 2 6 9 11 15 11 15 0 97 84
97 99 0 19 -30 -1 -36 -25 -3 -13 -15 -26 -25 -29 -10 -4 -19 -10 -19 -15 0
-5 -17 -14 -37 -21 -21 -6 -41 -17 -45 -23 -10 -16 -220 -14 -225 1 -3 7 -20
17 -39 23 -40 13 -45 30 -9 30 14 0 25 -4 25 -10 0 -6 42 -10 105 -10 58 0
105 4 105 9 0 5 23 11 50 15 28 4 50 11 50 16 0 6 7 10 15 10 9 0 18 6 21 14
6 15 49 31 72 27 7 -1 17 12 23 28 6 17 15 31 20 31 5 0 9 6 9 14 0 8 6 21 14
28 7 8 17 25 21 38 4 14 12 28 17 31 5 3 12 25 15 48 3 22 9 41 13 41 4 0 10
15 13 33 10 59 20 92 30 98 12 9 12 160 -1 168 -5 3 -13 17 -17 31 -9 29 -92
110 -112 110 -12 0 -12 -2 1 -15 8 -8 18 -15 23 -15 10 0 53 -45 53 -55 0 -4
7 -13 16 -20 20 -14 32 -176 16 -215 -9 -21 -11 -14 -11 43 -1 37 -5 67 -10
67 -5 0 -11 18 -15 40 -3 22 -10 40 -15 40 -5 0 -12 12 -15 26 -4 14 -18 36
-33 50 -14 13 -25 35 -25 49 0 14 -4 25 -9 25 -5 0 -9 5 -9 10 0 12 -15 32
-42 58 -10 9 -18 20 -18 24 0 12 -42 58 -53 58 -5 0 -20 11 -33 25 -12 13 -35
27 -51 31 -15 4 -30 11 -33 15 -7 10 -142 18 -192 12z m120 -130 c-10 -2 -18
-8 -18 -12 0 -5 -35 -11 -77 -15 -42 -3 -79 -10 -82 -15 -3 -5 -22 -12 -41
-16 l-35 -7 24 21 c13 11 30 21 38 21 7 0 13 4 13 9 0 6 15 12 33 14 45 5 166
6 145 0z m82 -43 c0 -6 -33 -10 -80 -10 -47 0 -80 4 -80 10 0 6 33 10 80 10
47 0 80 -4 80 -10z m-290 -40 c0 -5 -9 -10 -20 -10 -11 0 -20 5 -20 10 0 6 9
10 20 10 11 0 20 -4 20 -10z m310 -30 c3 -4 20 -11 38 -15 17 -3 32 -11 32
-16 0 -5 7 -9 15 -9 8 0 19 -9 25 -20 6 -11 17 -20 25 -20 8 0 15 -6 15 -14 0
-8 6 -16 13 -18 16 -6 17 -285 1 -296 -6 -4 -15 -22 -19 -39 -3 -18 -11 -33
-16 -33 -5 0 -9 -6 -9 -13 0 -7 -9 -23 -20 -35 -11 -12 -20 -25 -20 -30 0 -4
-14 -19 -30 -32 -17 -14 -36 -30 -43 -36 -7 -6 -24 -15 -37 -19 -14 -4 -28
-12 -31 -17 -4 -6 -27 -13 -53 -15 -25 -3 -46 -10 -46 -14 0 -5 -16 -9 -35 -9
-19 0 -35 4 -35 9 0 4 -19 11 -42 14 -24 3 -44 11 -46 16 -2 6 -9 11 -15 11
-7 0 -23 12 -36 25 -13 14 -27 25 -32 25 -5 0 -11 11 -15 25 -3 14 -13 29 -21
34 -9 5 -17 27 -19 57 -2 27 -1 43 2 35 11 -23 95 -101 109 -101 7 0 15 -6 18
-12 5 -18 189 -18 195 0 2 6 8 12 14 12 16 0 85 75 93 101 4 13 13 27 19 31 7
5 11 46 11 111 0 85 -3 107 -17 121 -10 10 -18 22 -18 27 0 17 -64 76 -90 84
-14 4 -28 12 -31 17 -3 5 -29 11 -57 15 -53 6 -68 21 -32 30 11 3 20 9 20 13
0 5 8 11 18 14 24 7 196 -5 202 -14z m-250 1 c0 -5 -10 -11 -21 -14 -14 -4
-20 -11 -16 -21 4 -10 1 -13 -9 -9 -9 3 -24 -4 -35 -16 -11 -11 -25 -21 -32
-21 -7 0 -24 -14 -39 -30 -17 -20 -28 -26 -32 -18 -3 9 -8 8 -16 -4 -6 -10
-16 -18 -21 -18 -6 0 -3 7 5 16 9 8 16 20 16 25 0 13 61 69 75 69 7 0 15 7 19
15 3 8 11 15 18 14 10 0 10 -2 1 -6 -17 -6 -16 -23 1 -23 8 0 16 7 20 15 3 8
12 15 21 15 8 0 15 5 15 10 0 6 7 10 15 10 8 0 15 -4 15 -9z m350 -1 c0 -5 -4
-10 -10 -10 -5 0 -10 5 -10 10 0 6 5 10 10 10 6 0 10 -4 10 -10z m-526 -55
c-4 -8 -9 -15 -13 -15 -4 0 -17 -9 -29 -20 -26 -25 -29 -12 -4 17 14 17 24 23
49 32 1 1 0 -6 -3 -14z m671 -35 c3 -11 10 -20 15 -20 4 0 11 -12 15 -27 3
-15 11 -30 16 -34 5 -3 11 -34 13 -70 2 -35 2 -52 -1 -36 -2 15 -8 27 -14 27
-5 0 -12 18 -15 40 -4 22 -10 40 -15 40 -5 0 -12 18 -15 40 -4 22 -10 40 -15
40 -5 0 -9 5 -9 10 0 18 18 11 25 -10z m-455 -40 c0 -5 10 -10 23 -10 22 0 67
-39 67 -58 0 -6 6 -12 13 -14 8 -3 12 -32 12 -98 0 -66 -4 -95 -12 -97 -7 -3
-13 -10 -13 -16 0 -15 -44 -57 -59 -57 -6 0 -11 -4 -11 -10 0 -5 -20 -10 -45
-10 -25 0 -45 4 -45 9 0 5 -11 12 -25 15 -14 4 -25 11 -25 17 0 6 -7 17 -15
25 -8 9 -15 24 -15 35 0 10 -4 19 -10 19 -6 0 -10 28 -10 65 0 36 4 65 9 65 5
0 11 13 14 29 8 37 48 81 76 81 11 0 21 5 21 10 0 6 11 10 25 10 14 0 25 -4
25 -10z m419 -21 c22 -63 7 -321 -20 -353 -8 -9 -19 -22 -25 -29 -5 -7 -13
-20 -17 -29 -3 -10 -11 -18 -17 -18 -5 0 -10 -6 -10 -13 0 -7 -13 -27 -29 -45
-24 -26 -40 -33 -85 -38 -31 -4 -56 -11 -56 -15 0 -5 -9 -9 -20 -9 -33 0 -22
17 15 24 19 4 35 11 35 16 0 6 5 10 11 10 20 0 129 107 129 127 0 7 4 13 9 13
5 0 12 14 16 30 4 17 11 30 16 30 5 0 12 18 15 40 4 22 10 40 15 40 5 0 9 50
9 110 0 67 -4 110 -10 110 -5 0 -10 7 -10 15 0 26 18 16 29 -16z m-732 -46
c-3 -10 -5 -2 -5 17 0 19 2 27 5 18 2 -10 2 -26 0 -35z m93 41 c0 -3 -7 -12
-15 -20 -8 -9 -15 -26 -15 -40 0 -13 -4 -24 -10 -24 -6 0 -11 -44 -12 -107 -1
-80 -3 -90 -5 -40 -2 37 -8 67 -13 67 -6 0 -10 23 -10 50 0 28 5 50 10 50 6 0
14 8 17 17 12 30 53 67 53 47z m-130 -49 c0 -21 -5 -35 -12 -35 -9 0 -10 -3
-2 -8 6 -4 14 -55 18 -116 7 -98 6 -107 -8 -94 -8 9 -18 27 -22 42 -3 14 -10
26 -15 26 -5 0 -9 38 -9 85 0 47 4 85 9 85 5 0 12 11 15 25 9 37 26 30 26 -10z
m860 -174 c0 -35 -5 -61 -11 -63 -7 -2 -12 -17 -13 -34 -1 -22 -6 -30 -20 -30
-16 0 -17 6 -12 46 3 25 11 47 16 48 6 2 10 24 10 48 0 32 4 44 15 44 12 0 15
-13 15 -59z m-830 -111 c0 -5 -4 -10 -10 -10 -5 0 -10 5 -10 10 0 6 5 10 10
10 6 0 10 -4 10 -10z m800 -45 c0 -8 -4 -15 -9 -15 -5 0 -12 -13 -16 -30 -4
-16 -11 -30 -16 -30 -6 0 -15 -14 -21 -30 -6 -19 -19 -32 -34 -36 -13 -3 -24
-11 -24 -18 0 -6 -5 -4 -10 4 -9 13 -12 13 -21 -2 -5 -10 -17 -18 -25 -18 -8
0 -17 -6 -20 -14 -3 -8 -17 -17 -32 -21 -15 -4 -30 -11 -33 -17 -4 -6 -26 -11
-50 -13 -24 -1 -32 0 -16 2 15 2 27 8 27 13 0 4 11 11 25 14 14 4 25 11 25 16
0 6 6 10 14 10 14 0 41 20 98 73 16 16 33 25 37 21 3 -4 0 -9 -6 -11 -15 -5
-17 -33 -3 -33 5 0 12 11 16 25 3 14 10 25 14 25 4 0 13 13 18 29 17 49 62 89
62 56z m-412 -181 c25 -7 30 -24 7 -24 -8 0 -15 4 -15 9 0 6 -17 12 -37 14
-32 3 -33 4 -8 5 17 1 40 -1 53 -4z m22 -44 c0 -5 -22 -10 -50 -10 -27 0 -50
5 -50 10 0 6 23 10 50 10 28 0 50 -4 50 -10z"/>
<path d="M1456 1375 c-20 -19 -36 -38 -36 -41 0 -4 12 5 26 20 15 14 30 26 34
26 4 0 10 7 14 15 8 22 2 19 -38 -20z"/>
<path d="M80 1565 l0 -95 55 0 c73 0 95 21 95 90 0 28 -4 50 -10 50 -5 0 -10
7 -10 15 0 8 -7 15 -15 15 -8 0 -15 5 -15 10 0 6 -22 10 -50 10 l-50 0 0 -95z
m100 45 c21 -21 28 -80 10 -80 -5 0 -10 -7 -10 -15 0 -10 -11 -15 -35 -15
l-35 0 0 65 c0 63 1 65 25 65 14 0 34 -9 45 -20z"/>
<path d="M270 1565 c0 -78 3 -95 15 -95 12 0 15 17 15 95 0 78 -3 95 -15 95
-12 0 -15 -17 -15 -95z"/>
<path d="M393 1646 c-6 -8 -17 -33 -23 -57 -7 -24 -16 -46 -20 -49 -4 -3 -11
-20 -15 -37 -5 -26 -3 -33 9 -33 8 0 18 9 21 20 5 16 15 20 50 20 35 0 45 -4
50 -20 7 -23 35 -27 35 -5 0 8 -4 15 -8 15 -5 0 -15 25 -22 55 -7 30 -16 55
-21 55 -4 0 -10 11 -13 25 -7 27 -24 32 -43 11z m37 -58 c0 -7 3 -23 6 -35 6
-20 3 -23 -25 -23 -21 0 -31 5 -31 15 0 8 5 15 10 15 6 0 10 9 10 20 0 11 7
20 15 20 8 0 15 -6 15 -12z"/>
<path d="M538 1630 c-21 -22 -28 -39 -28 -70 0 -40 17 -70 39 -70 6 0 11 -4
11 -10 0 -5 22 -10 48 -10 43 0 50 3 60 25 13 29 15 55 6 79 -8 21 -64 22 -64
1 0 -9 9 -15 25 -15 16 0 25 -6 25 -15 0 -8 -4 -15 -10 -15 -5 0 -10 -7 -10
-15 0 -23 -62 -19 -83 5 -18 21 -23 70 -8 70 5 0 13 9 16 20 5 15 15 20 41 20
19 0 34 -4 34 -10 0 -5 7 -10 15 -10 16 0 19 9 9 34 -4 12 -19 16 -53 16 -37
-1 -51 -6 -73 -30z"/>
<path d="M748 1641 c-10 -10 -18 -23 -18 -29 0 -7 -4 -12 -10 -12 -5 0 -10
-19 -10 -43 0 -36 4 -46 25 -57 14 -7 25 -17 25 -22 0 -4 22 -8 49 -8 41 0 51
4 56 20 3 11 11 20 16 20 5 0 9 23 9 50 0 28 -4 50 -10 50 -5 0 -10 7 -10 15
0 8 -7 15 -15 15 -8 0 -15 5 -15 10 0 17 -74 10 -92 -9z m92 -31 c21 -21 28
-80 10 -80 -5 0 -10 -7 -10 -15 0 -11 -11 -15 -36 -15 -27 0 -37 5 -41 20 -3
11 -9 20 -14 20 -5 0 -9 11 -9 25 0 14 4 25 9 25 5 0 13 9 16 20 4 13 15 20
31 20 13 0 33 -9 44 -20z"/>
<path d="M930 1565 c0 -78 3 -95 15 -95 12 0 15 13 15 60 0 59 0 60 20 43 11
-10 20 -23 20 -29 0 -6 9 -21 20 -34 11 -13 20 -27 20 -32 0 -4 11 -8 25 -8
25 0 25 0 25 95 0 78 -3 95 -15 95 -12 0 -15 -14 -15 -65 0 -36 -3 -65 -8 -65
-10 0 -34 29 -52 65 -18 34 -46 65 -60 65 -6 0 -10 -38 -10 -95z"/>
<path d="M1170 1636 c0 -14 -6 -31 -13 -38 -8 -7 -17 -30 -21 -51 -4 -20 -11
-37 -16 -37 -6 0 -10 -9 -10 -20 0 -11 6 -20 13 -20 7 0 19 9 27 20 10 13 26
20 48 20 25 0 35 -5 39 -20 5 -21 53 -30 53 -10 0 6 -4 10 -9 10 -5 0 -12 16
-15 35 -4 19 -11 35 -16 35 -6 0 -10 6 -10 13 0 6 -5 29 -11 50 -8 30 -15 37
-34 37 -20 0 -25 -5 -25 -24z m52 -77 c4 -26 2 -29 -24 -29 -21 0 -28 5 -28
20 0 11 5 20 10 20 6 0 10 7 10 15 0 26 28 4 32 -26z"/>
<path d="M673 1403 c-18 -2 -33 -8 -33 -13 0 -4 -12 -11 -27 -15 -26 -6 -73
-48 -73 -64 0 -4 -9 -18 -20 -31 -11 -13 -20 -36 -20 -52 0 -15 -4 -28 -10
-28 -6 0 -10 -28 -10 -65 0 -36 4 -65 9 -65 5 0 12 -18 16 -41 5 -30 19 -52
52 -85 25 -24 52 -44 59 -44 7 0 14 -6 17 -12 5 -18 219 -18 225 0 2 7 9 12
16 12 7 0 26 11 42 25 16 14 32 25 37 25 13 0 7 51 -7 66 -21 20 -34 18 -60
-11 -13 -14 -37 -28 -55 -31 -17 -4 -31 -10 -31 -15 0 -5 -27 -9 -60 -9 -33 0
-60 4 -60 10 0 5 -11 12 -25 16 -14 3 -25 11 -25 16 0 5 -7 16 -15 24 -8 9
-15 31 -15 49 l0 35 183 2 182 3 -1 79 c0 52 -4 81 -12 84 -7 2 -12 9 -12 15
0 7 -12 23 -25 36 -14 13 -25 26 -25 30 0 4 -12 14 -27 22 -16 8 -30 17 -33
21 -7 9 -117 17 -157 11z m87 -82 c0 -5 16 -12 35 -15 20 -4 35 -13 35 -21 0
-8 6 -18 14 -22 7 -4 16 -25 20 -45 l7 -38 -146 0 c-90 0 -145 4 -145 10 0 6
4 10 9 10 5 0 11 14 15 30 7 35 50 80 77 80 11 0 19 5 19 10 0 6 14 10 30 10
17 0 30 -4 30 -9z"/>
<path d="M74 1374 c-5 -18 -1 -30 14 -45 18 -16 36 -19 117 -19 74 0 95 -3 95
-14 0 -8 -7 -16 -15 -20 -8 -3 -15 -12 -15 -21 0 -8 -5 -15 -11 -15 -5 0 -15
-13 -20 -29 -6 -16 -17 -32 -25 -35 -8 -3 -14 -12 -14 -20 0 -7 -7 -16 -15
-20 -8 -3 -15 -12 -15 -21 0 -8 -4 -15 -9 -15 -5 0 -14 -13 -21 -29 -6 -16
-18 -32 -26 -35 -8 -3 -14 -12 -14 -21 0 -8 -4 -15 -10 -15 -5 0 -12 -11 -16
-24 -3 -14 -12 -27 -20 -30 -19 -7 -18 -41 2 -60 13 -13 44 -16 187 -16 192 0
213 3 220 32 12 45 3 48 -144 48 -117 0 -139 2 -139 15 0 8 4 15 9 15 5 0 13
9 16 21 7 21 13 30 65 87 17 18 30 36 30 40 0 10 29 49 53 70 9 9 17 21 17 27
0 12 27 50 53 73 9 9 17 22 17 29 0 7 5 13 10 13 15 0 12 29 -4 46 -12 11 -51
14 -190 14 l-176 0 -6 -26z"/>
<path d="M80 756 c0 -56 0 -56 30 -56 37 0 43 13 32 65 -6 34 -12 41 -35 43
-27 3 -27 2 -27 -52z m45 22 c6 -4 2 -8 -7 -8 -10 0 -18 7 -18 17 0 9 3 12 8
7 4 -5 12 -12 17 -16z m9 -53 c-4 -8 -12 -15 -20 -15 -8 0 -14 7 -14 15 0 8 9
15 20 15 13 0 18 -5 14 -15z"/>
<path d="M200 796 c0 -8 -4 -16 -9 -18 -5 -1 -12 -19 -16 -38 l-6 -35 40 0
c46 0 45 -1 30 61 -11 41 -39 63 -39 30z m25 -48 c6 -4 2 -8 -7 -8 -10 0 -18
7 -18 17 0 9 3 12 8 7 4 -5 12 -12 17 -16z"/>
<path d="M277 804 c-4 -4 -7 -29 -7 -56 0 -36 4 -48 15 -48 8 0 15 7 15 16 0
14 1 14 16 0 8 -9 17 -16 19 -16 1 0 2 24 1 53 -1 48 -3 52 -26 55 -14 2 -29
0 -33 -4z m44 -34 c-3 -3 -9 -9 -13 -14 -5 -5 -8 3 -8 18 0 22 2 25 14 14 8
-7 11 -15 7 -18z"/>
<path d="M369 783 c-6 -15 -6 -36 -1 -52 7 -21 16 -26 43 -28 19 -1 25 1 15 4
-43 12 -59 51 -32 79 18 17 33 18 39 2 3 -8 6 -6 6 5 1 12 -7 17 -29 17 -24 0
-33 -6 -41 -27z"/>
<path d="M470 755 l0 -55 33 1 c30 2 30 2 5 6 -31 5 -38 29 -10 36 16 4 16 5
0 6 -19 1 -26 31 -7 31 6 0 17 7 25 15 14 13 12 15 -15 15 -31 0 -31 0 -31
-55z"/>
<path d="M540 757 l0 -56 70 0 c55 0 70 3 70 14 0 8 5 15 10 15 16 0 12 38 -7
60 -35 40 -83 14 -83 -46 0 -23 -5 -34 -14 -34 -11 0 -16 14 -18 47 -4 69 -28
69 -28 0z m127 16 c5 -16 7 -36 5 -45 -4 -22 -42 -24 -42 -3 0 8 -4 15 -10 15
-15 0 -12 18 8 39 23 26 29 25 39 -6z"/>
<path d="M710 755 c0 -42 3 -55 15 -55 9 0 15 9 15 25 0 14 5 25 10 25 6 0 10
-4 10 -9 0 -12 29 -41 41 -41 12 0 12 97 -1 105 -6 4 -10 -8 -10 -29 0 -20 -4
-36 -10 -36 -5 0 -10 6 -10 13 0 12 -42 57 -54 57 -3 0 -6 -25 -6 -55z"/>
<path d="M860 796 c0 -8 -4 -16 -9 -18 -5 -1 -12 -19 -16 -38 l-6 -35 40 0
c46 0 45 -2 29 60 -11 42 -38 63 -38 31z m25 -48 c6 -4 2 -8 -7 -8 -10 0 -18
7 -18 17 0 9 3 12 8 7 4 -5 12 -12 17 -16z"/>
<path d="M930 755 c0 -42 3 -55 15 -55 8 0 15 9 15 20 0 13 7 20 20 20 13 0
20 -7 20 -20 0 -11 7 -20 15 -20 12 0 15 13 15 55 0 42 -3 55 -15 55 -10 0
-15 -10 -15 -30 0 -23 -4 -30 -20 -30 -16 0 -20 7 -20 30 0 20 -5 30 -15 30
-12 0 -15 -13 -15 -55z"/>
<path d="M1057 790 c-9 -11 -17 -34 -17 -50 0 -32 24 -45 71 -38 20 2 25 10
27 39 5 61 -45 91 -81 49z m68 -42 c6 -5 5 -8 -2 -8 -7 0 -13 -7 -13 -15 0
-22 -40 -19 -41 3 -2 28 2 44 14 57 10 11 14 9 22 -8 5 -12 14 -25 20 -29z"/>
<path d="M1154 794 c9 -9 16 -32 16 -55 0 -28 4 -39 15 -39 11 0 15 11 15 40
0 22 5 40 10 40 6 0 10 7 10 15 0 11 -11 15 -41 15 -37 0 -39 -1 -25 -16z"/>
<path d="M1240 755 l0 -55 33 1 c23 1 26 3 10 6 -13 2 -23 11 -23 18 0 7 10
16 23 18 l22 4 -22 2 c-28 1 -31 31 -3 31 11 0 20 7 20 15 0 10 -10 15 -30 15
-30 0 -30 -1 -30 -55z"/>
<path d="M1320 755 c0 -54 1 -55 28 -54 16 1 20 3 10 6 -14 3 -18 15 -18 54 0
27 -4 49 -10 49 -5 0 -10 -25 -10 -55z"/>
</g>
</svg>
